…
# Note: These are smaller samples to show outputs, not the real data.
# For all data, call the function with default versions (i.e. no arguments).
build_supply_use(
  cbs_version = "example",
  feed_intake_version = "example",
  primary_prod_version = "example",
  primary_residues_version = "example",
  processing_coefs_version = "example"
)
#> ℹ Fetching files for primary_prod...
#> ℹ Fetching files for crop_residues...
#> ℹ Fetching files for commodity_balance_sheet...
#> ℹ Fetching files for feed_intake...
#> ℹ Fetching files for processing_coefs...
#> # A tibble: 27,914 × 7
#>     year area_code proc_group      proc_cbs_code item_cbs_code type       value
#>    <dbl>     <dbl> <chr>                   <dbl>         <dbl> <chr>      <dbl>
#>  1  1965        38 crop_production          2645          2645 supply     4460 
#>  2  1984        50 crop_production          2625          2625 supply       45 
#>  3  2003       131 crop_production          2577          2577 supply 13354800 
#>  4  1996       235 crop_production          2517          2517 supply     1600 
#>  5  2021        10 crop_production          2511          2511 supply 31922555.
#>  6  1970        41 crop_production          2605          2605 supply     7000 
#>  7  1997       222 crop_production          2605          2605 supply    12000 
#>  8  2003        59 crop_production          2662          2662 supply     2049.
#>  9  1966       236 crop_production          2549          2549 supply     5891 
#> 10  1976       105 crop_production          2533          2533 supply      800 
#> # ℹ 27,904 more rows
```
