Calculate LMDI decomposition. — calculate_lmdi • whep
…
calculate_lmdi(
  data_smooth,
  identity = "emissions:activity*intensity",
  time_var = year,
  rolling_mean = 3,
  verbose = FALSE
) |>
  dplyr::select(
    period,
    component_type,
    factor_label,
    additive,
    multiplicative
  )
#> # A tibble: 30 × 5
#>    period    component_type factor_label additive multiplicative
#>    <chr>     <chr>          <chr>           <dbl>          <dbl>
#>  1 2010-2011 factor         activity            5           1.05
#>  2 2010-2011 factor         intensity           0           1   
#>  3 2010-2011 target         emissions           5           1.05
#>  4 2011-2012 factor         activity           10           1.09
#>  5 2011-2012 factor         intensity           0           1   
#>  6 2011-2012 target         emissions          10           1.09
#>  7 2012-2013 factor         activity           10           1.08
#>  8 2012-2013 factor         intensity           0           1   
#>  9 2012-2013 target         emissions          10           1.08
#> 10 2013-2014 factor         activity           10           1.08
#> # ℹ 20 more rows
…
