Processed products share factors — get_processing_coefs • whep
…
    Examples

# Note: These are smaller samples to show outputs, not the real data.
# For all data, call the function with default version (i.e. no arguments).
get_processing_coefs(version = "20250721T143403Z-216d7")
#> ℹ Fetching files for processing_coefs...
#> # A tibble: 5,000 × 10
#>     year area_code item_cbs_code_to_process value_to_process
#>    <dbl>     <dbl>                    <dbl>            <dbl>
#>  1  2012        38                     2561           1097. 
#>  2  2009        28                     2537         372812. 
#>  3  1992       110                     2537        3581000  
#>  4  1965        51                     2555          25085  
#>  5  2008        52                     2537          94467. 
#>  6  2000       166                     2544          25108  
#>  7  1962       156                     2513          39031. 
#>  8  2010        28                     2537         374089. 
#>  9  1966       121                     2557             23.8
#> 10  2015       231                     2559        1142825. 
#> # ℹ 4,990 more rows
#> # ℹ 6 more variables: item_cbs_code_processed <dbl>,
#> #   initial_conversion_factor <dbl>, initial_value_processed <dbl>,
#> #   conversion_factor_scaling <dbl>, final_conversion_factor <dbl>,
#> #   final_value_processed <dbl>
…
