…
  - `t_head`: tonnes per head, available for livestock products.

  - `t_LU`: tonnes per Livestock Unit, available for livestock products.

- `value`: The amount of item produced, measured in `unit`.

## Examples

``` r
# Note: These are smaller samples to show outputs, not the real data.
# For all data, call the function with default version (i.e. no arguments).
get_primary_production(version = "example")
#> ℹ Fetching files for primary_prod...
#> # A tibble: 10,000 × 7
#>     year area_code item_prod_code item_cbs_code live_anim_code unit       value
#>    <dbl>     <dbl>          <dbl>         <dbl>          <dbl> <chr>      <dbl>
#>  1  1965        38            720          2645             NA tonnes 4460     
#>  2  2019       213           1062          2744           1052 t_LU    581.    
#>  3  1999        39            826          2671             NA t_ha      1.45  
#>  4  1968       114            772           772             NA t_ha      1     
#>  5  2001       236            406          2605             NA ha     1591     
#>  6  1984        50            603          2625             NA tonnes   45     
#>  7  1981       136            567          2605             NA ha      720     
#>  8  2005        40            547          2625             NA ha     4532     
#>  9  2009       215            977          2732            976 t_LU      0.0321
#> 10  1996       158            191          2549             NA ha      270     
#> # ℹ 9,990 more rows
```
