…
- `loss`: The amount that is not used for feed. This is
  `supply - intake`.

- `loss_share`: The percent that is lost. This is `loss / supply`.

## Examples

``` r
# Note: These are smaller samples to show outputs, not the real data.
# For all data, call the function with default version (i.e. no arguments).
get_feed_intake(version = "example")
#> ℹ Fetching files for feed_intake...
#> # A tibble: 10,000 × 10
#>     year area_code live_anim_code item_cbs_code feed_type   supply   intake
#>    <dbl>     <dbl>          <dbl>         <dbl> <chr>        <dbl>    <dbl>
#>  1  1983        15           1096          2102 crops         21.1     18.9
#>  2  1985       251           1016          3000 grass     269616.  269616. 
#>  3  2021       222           1052          2781 animals       35.9     32.3
#>  4  2017       105           1079          2598 crops       1727.    1554. 
#>  5  2000        39           1053          2106 residues   12662.   11396. 
#>  6  1968        84           1016          2002 residues    3015.    2714. 
#>  7  2008       170           1053          2595 crops       4294.    3864. 
#>  8  2015         3            976          2101 crops         40.1     36.1
#>  9  2002        79           1052          2558 crops       3788.    3409. 
#> 10  2014        41           1068          2518 crops     148505.  133654. 
#> # ℹ 9,990 more rows
#> # ℹ 3 more variables: intake_dry_matter <dbl>, loss <dbl>, loss_share <dbl>
```
