…
  - `2107`: `Firewood`

  These are actually not FAOSTAT defined items, but custom defined by
  us. When necessary, FAOSTAT codes are extended for our needs.

- `value`: The amount of residue produced, measured in tonnes.

## Examples

``` r
# Note: These are smaller samples to show outputs, not the real data.
# For all data, call the function with default version (i.e. no arguments).
get_primary_residues(version = "example")
#> ℹ Fetching files for crop_residues...
#> # A tibble: 4,504 × 5
#>     year area_code item_cbs_code_crop item_cbs_code_residue    value
#>    <dbl>     <dbl>              <dbl>                 <dbl>    <dbl>
#>  1  2003        53               2570                  2107  19903. 
#>  2  2008        NA               2551                  2107 222849. 
#>  3  2001        NA               2605                  2106   2309. 
#>  4  1981       136               2605                  2106    421. 
#>  5  2019       121               2605                  2106  19703. 
#>  6  2005        40               2625                  2107   5904. 
#>  7  1978       166               2605                  2106    828. 
#>  8  1996       158               2549                  2105     92.9
#>  9  1976        10               2612                  2107   5401. 
#> 10  2012         3               2605                  2106  12086. 
#> # ℹ 4,494 more rows
```
