Bilateral trade data — get_bilateral_trade • whep
…
    Examples

# Note: These are smaller samples to show outputs, not the real data.
# For all data, call the function with default versions (i.e. no arguments).
get_bilateral_trade(
  trade_version = "example",
  cbs_version = "example"
)
#> ℹ Fetching files for commodity_balance_sheet...
#> ℹ Fetching files for bilateral_trade...
#> # A tibble: 72 × 3
#>     year item_cbs_code bilateral_trade  
#>    <int>         <dbl> <list>           
#>  1  1995          2630 <dbl [187 × 187]>
#>  2  2001          2733 <dbl [187 × 187]>
#>  3  2005          2671 <dbl [187 × 187]>
#>  4  2017          2513 <dbl [187 × 187]>
#>  5  2011          2601 <dbl [187 × 187]>
#>  6  2011          2655 <dbl [187 × 187]>
#>  7  2015          2558 <dbl [187 × 187]>
#>  8  2014          2577 <dbl [187 × 187]>
#>  9  2000          2625 <dbl [187 × 187]>
#> 10  2018          2661 <dbl [187 × 187]>
#> # ℹ 62 more rows
…
