Commodity balance sheet data — get_wide_cbs • whep
…
processing: The product will be used to obtain other subproducts.

other_uses: Any other use not included in the above ones.

There is an additional column domestic_supply which is computed as the
total use excluding export.

    Examples

# Note: These are smaller samples to show outputs, not the real data.
# For all data, call the function with default version (i.e. no arguments).
get_wide_cbs(version = "example")
#> ℹ Fetching files for commodity_balance_sheet...
#> # A tibble: 9,959 × 13
#>     year area_code item_cbs_code processing production other_uses  feed  seed
#>    <int>     <int>         <dbl>      <dbl>      <dbl>      <dbl> <dbl> <dbl>
#>  1  1968       216          2775          0         0           0     0     0
#>  2  2011        57          2731          0    297800           0     0     0
#>  3  1962        51          2590          0         0           0     0     0
#>  4  1973        48          2737          0      6656.          0     0     0
#>  5  1987       171          2106          0         0           0     0     0
#>  6  2012       129          2105          0         0           0     0     0
#>  7  1980       162          2737          0         0           0     0     0
#>  8  2001        97          2781          0         0           0     0     0
#>  9  2021       250          2613          0         0           0     0     0
#> 10  1968       202          2807          0         0           0     0     0
#> # ℹ 9,949 more rows
#> # ℹ 5 more variables: import <dbl>, domestic_supply <dbl>, food <dbl>,
#> #   export <dbl>, stock_retrieval <dbl>
…
