…
- emission_factor:

  Emission factor in kg CO2-eq per kg of the `denominator`.

## Source

MacLeod et al. (2018) GLEAM 3.0 Supplement S1, Tables S.7.1 through
S.7.7.
[doi:10.1088/1748-9326/aad4d8](https://doi.org/10.1088/1748-9326/aad4d8)

## Examples

``` r
gleam_energy_use_ef
#> # A tibble: 361 × 9
#>    species herd  grouping grouping_scheme system climate energy_type denominator
#>    <chr>   <chr> <chr>    <chr>           <chr>  <chr>   <chr>       <chr>      
#>  1 buffalo all   Least d… development3    grass… arid    embedded    lw         
#>  2 buffalo all   Least d… development3    grass… humid   embedded    lw         
#>  3 buffalo all   Least d… development3    grass… temper… embedded    lw         
#>  4 buffalo all   Least d… development3    mixed… arid    embedded    lw         
#>  5 buffalo all   Least d… development3    mixed… humid   embedded    lw         
#>  6 buffalo all   Least d… development3    mixed… temper… embedded    lw         
#>  7 buffalo all   OECD     development3    grass… arid    embedded    lw         
#>  8 buffalo all   OECD     development3    grass… humid   embedded    lw         
#>  9 buffalo all   OECD     development3    grass… temper… embedded    lw         
#> 10 buffalo all   OECD     development3    mixed… arid    embedded    lw         
#> # ℹ 351 more rows
#> # ℹ 1 more variable: emission_factor <dbl>
```
